[
	{
		"id": 1,
		"nome": "Filho do Xico da Silva",
		"documento": "123",
		"responsavel": {
			"id": 1,
			"nome": "Xico da Silva",
			"rg": "123",
			"cpf": "1234",
			"tipoPessoa": "Contratante"
		}

	},
	{
		"id": 2,
		"nome": "Filho do Xico da Silva 2",
		"documento": "123",
		"responsavel": {
			"id": 2,
			"nome": "Xico da Silva 2",
			"rg": "1234",
			"cpf": "12345",
			"tipoPessoa": "Contratante"
		}
	}
]