[
	{
		"id": 1,
		"nome": "Xico da Silva",
		"rg": "123",
		"cpf": "1234",
		"tipoPessoa": "Contratante"

	},
	{
		"id": 2,
		"nome": "Xico da Silva 2",
		"rg": "1234",
		"cpf": "12345",
		"tipoPessoa": "Motorista"

	},
	{
		"id": 3,
		"nome": "Xico da Silva 3",
		"rg": "12345",
		"cpf": "1234444",
		"tipoPessoa": "Contratante"

	}
]